build/DRAMSimPYMTLWrapper.block_test.dramwrapper_test__test_random_read_writes.vcd
$date
  Mon May  8 14:20:02 2023
$end
$version
  PyMTL 3 (Mamba)
$end
$timescale
 10ps
$end

$scope module top $end
  $var reg 1 $ reset $end
  $var reg 1 ! clk $end
  $scope module sink $end
    $var reg 1 # recv.val $end
    $var reg 1 & recv.rdy $end
    $var reg 1 ! clk $end
    $var reg 1 $ reset $end
    $var reg 129 ) recv.msg $end
  $upscope $end
  $scope module memmodel $end
    $var reg 1 / memsystem_rdy $end
    $var reg 1 ( istream.val $end
    $var reg 1 # ostream.val $end
    $var reg 1 0 in_flight $end
    $var reg 1 * istream.rdy $end
    $var reg 1 & ostream.rdy $end
    $var reg 1 ! clk $end
    $var reg 129 ' istream.msg $end
    $var reg 1 $ reset $end
    $var reg 129 ) ostream.msg $end
    $var reg 32 1 rtl_clk_cycles $end
    $scope module queue1 $end
      $var reg 1 + count $end
      $var reg 1 ! clk $end
      $var reg 129 - send.msg $end
      $var reg 1 ( recv.val $end
      $var reg 1 $ reset $end
      $var reg 1 + send.val $end
      $var reg 1 * recv.rdy $end
      $var reg 1 . send.rdy $end
      $var reg 129 ' recv.msg $end
      $scope module q $end
        $var reg 1 + send.val $end
        $var reg 129 - entry $end
        $var reg 1 * recv.rdy $end
        $var reg 1 . send.rdy $end
        $var reg 1 $ reset $end
        $var reg 1 + count $end
        $var reg 1 ! clk $end
        $var reg 129 ' recv.msg $end
        $var reg 1 + full $end
        $var reg 129 - send.msg $end
        $var reg 1 ( recv.val $end
      $upscope $end
    $upscope $end
    $scope module queue2 $end
      $var reg 1 # count $end
      $var reg 129 " recv.msg $end
      $var reg 1 % recv.rdy $end
      $var reg 1 ! clk $end
      $var reg 1 & send.rdy $end
      $var reg 1 , recv.val $end
      $var reg 1 $ reset $end
      $var reg 1 # send.val $end
      $var reg 129 ) send.msg $end
      $scope module q $end
        $var reg 1 ! clk $end
        $var reg 1 # full $end
        $var reg 129 " recv.msg $end
        $var reg 129 ) send.msg $end
        $var reg 1 # send.val $end
        $var reg 129 ) entry $end
        $var reg 1 % recv.rdy $end
        $var reg 1 $ reset $end
        $var reg 1 & send.rdy $end
        $var reg 1 , recv.val $end
        $var reg 1 # count $end
      $upscope $end
    $upscope $end
  $upscope $end
  $scope module src $end
    $var reg 129 ' send.msg $end
    $var reg 1 $ reset $end
    $var reg 1 ( send.val $end
    $var reg 1 * send.rdy $end
    $var reg 1 ! clk $end
  $upscope $end
$upscope $end
$enddefinitions $end

b0b0 !
b0b000000000000000000000000000000000000000000000000000000000000000000000000000000000000000000000000000000000000000000000000000000000 "
b0b0 #
b0b0 $
b0b0 %
b0b0 &
b0b000000000000000000000000000000000000000000000000000000000000000000000000000000000000000000000000000000000000000000000000000000000 '
b0b0 (
b0b000000000000000000000000000000000000000000000000000000000000000000000000000000000000000000000000000000000000000000000000000000000 )
b0b0 *
b0b0 +
b0b0 ,
b0b000000000000000000000000000000000000000000000000000000000000000000000000000000000000000000000000000000000000000000000000000000000 -
b0b0 .
b0b0 /
b0b0 0
b0b00000000000000000000000000000000 1

#0
b0b1 !

b0b000000000000000000000000000000000000000000000000000000000000000000000000000000000000000000000000000000000000000000000000000000000 "
b0b0 #
b0b1 $
b0b1 %
b0b000000000000000000000000000000000000000000000000000000000000000000000000000000000000000000000000000000000000000000000000000000000 '
b0b0 (
b0b000000000000000000000000000000000000000000000000000000000000000000000000000000000000000000000000000000000000000000000000000000000 )
b0b1 *
b0b000000000000000000000000000000000000000000000000000000000000000000000000000000000000000000000000000000000000000000000000000000000 -
b0b0 .
b0b00000000000000000000000000000000 1

#50
b0b0 !
#100
b0b1 !

b0b1 /

#150
b0b0 !
#200
b0b1 !


#250
b0b0 !
#300
b0b1 !

b0b0 $

#350
b0b0 !
#400
b0b1 !

b0b00000000000000000000000000000001 1

#450
b0b0 !
#500
b0b1 !

b0b00000000000000000000000000000010 1

#550
b0b0 !
#600
b0b1 !

b0b00000000000000000000000000000011 1

#650
b0b0 !
#700
b0b1 !

b0b100000000000000000000000000000000000000000000001001111010011111100000000000000000000000000000000000000000000000000000000000000000 '
b0b1 (
b0b00000000000000000000000000000100 1

#750
b0b0 !
#800
b0b1 !

b0b100000000000000000000000000000000000000000000001001111010011111100000000000000000000000000000000000000000000000000000000000000000 "
b0b000000000000000000000000000000000000000000000001001111010011111100000000000000000000000000000000000000000000000000000000000000001 '
b0b0 *
b0b1 +
b0b100000000000000000000000000000000000000000000001001111010011111100000000000000000000000000000000000000000000000000000000000000000 -
b0b00000000000000000000000000000000 1

#850
b0b0 !
#900
b0b1 !

b0b1 &
b0b1 ,
b0b1 .
b0b1 0
b0b00000000000000000000000000000001 1

#950
b0b0 !
#1000
b0b1 !

b0b1 #
b0b0 %
b0b100000000000000000000000000000000000000000000001001111010011111100000000000000000000000000000000000000000000000000000000000000000 )
b0b1 *
b0b0 +
b0b0 ,
b0b0 .
b0b0 0
b0b00000000000000000000000000000010 1

#1050
b0b0 !
#1100
b0b1 !

b0b000000000000000000000000000000000000000000000001001111010011111100000000000000000000000000000000000000000000000000000000000000000 "
b0b0 #
b0b1 %
b0b000000000000000000000000000000000000000000000001001111010011111100000000000000000000000000000000000000000000000000000000000000010 '
b0b0 *
b0b1 +
b0b000000000000000000000000000000000000000000000001001111010011111100000000000000000000000000000000000000000000000000000000000000001 -
b0b00000000000000000000000000000011 1

#1150
b0b0 !
#1200
b0b1 !

b0b1 ,
b0b1 .
b0b1 0
b0b00000000000000000000000000000100 1

#1250
b0b0 !
#1300
b0b1 !

b0b1 #
b0b0 %
b0b000000000000000000000000000000000000000000000001001111010011111100000000000000000000000000000000000000000000000000000000000000000 )
b0b1 *
b0b0 +
b0b0 ,
b0b0 .
b0b0 0
b0b00000000000000000000000000000000 1

#1350
b0b0 !
#1400
b0b1 !

b0b0 #
b0b1 %
b0b000000000000000000000000000000000000000000000001001111010011111100000000000000000000000000000000000000000000000000000000000000011 '
b0b0 *
b0b1 +
b0b000000000000000000000000000000000000000000000001001111010011111100000000000000000000000000000000000000000000000000000000000000010 -
b0b00000000000000000000000000000001 1

#1450
b0b0 !
#1500
b0b1 !

b0b1 ,
b0b1 .
b0b1 0
b0b00000000000000000000000000000010 1

#1550
b0b0 !
#1600
b0b1 !

b0b1 #
b0b0 %
b0b1 *
b0b0 +
b0b0 ,
b0b0 .
b0b0 0
b0b00000000000000000000000000000011 1

#1650
b0b0 !
#1700
b0b1 !

b0b0 #
b0b1 %
b0b000000000000000000000000000000000000000000000001001111010011111100000000000000000000000000000000000000000000000000000000000000100 '
b0b0 *
b0b1 +
b0b000000000000000000000000000000000000000000000001001111010011111100000000000000000000000000000000000000000000000000000000000000011 -
b0b00000000000000000000000000000100 1

#1750
b0b0 !
#1800
b0b1 !

b0b1 ,
b0b1 .
b0b1 0
b0b00000000000000000000000000000000 1

#1850
b0b0 !
#1900
b0b1 !

b0b1 #
b0b0 %
b0b1 *
b0b0 +
b0b0 ,
b0b0 .
b0b0 0
b0b00000000000000000000000000000001 1

#1950
b0b0 !
#2000
b0b1 !

b0b0 #
b0b1 %
b0b100000000000000000000000000000000000000000000110100101101110011110000000000000000000000000000000000000000000000000000000000000101 '
b0b0 *
b0b1 +
b0b000000000000000000000000000000000000000000000001001111010011111100000000000000000000000000000000000000000000000000000000000000100 -
b0b00000000000000000000000000000010 1

#2050
b0b0 !
#2100
b0b1 !

b0b1 ,
b0b1 .
b0b1 0
b0b00000000000000000000000000000011 1

#2150
b0b0 !
#2200
b0b1 !

b0b1 #
b0b0 %
b0b1 *
b0b0 +
b0b0 ,
b0b0 .
b0b0 0
b0b00000000000000000000000000000100 1

#2250
b0b0 !
#2300
b0b1 !

b0b100000000000000000000000000000000000000000000110100101101110011110000000000000000000000000000000000000000000000000000000000000000 "
b0b0 #
b0b1 %
b0b100000000000000000000000000000000000000000000111100111010101100110000000000000000000000000000000000000000000000000000000000000110 '
b0b0 *
b0b1 +
b0b100000000000000000000000000000000000000000000110100101101110011110000000000000000000000000000000000000000000000000000000000000101 -
b0b00000000000000000000000000000000 1

#2350
b0b0 !
#2400
b0b1 !

b0b100000000000000000000000000000000000000000000110100101101110011110000000000000000000000000000000000000000000000000000000000000101 "
b0b1 ,
b0b1 .
b0b1 0
b0b00000000000000000000000000000001 1

#2450
b0b0 !
#2500
b0b1 !

b0b1 #
b0b0 %
b0b100000000000000000000000000000000000000000000110100101101110011110000000000000000000000000000000000000000000000000000000000000101 )
b0b1 *
b0b0 +
b0b0 ,
b0b0 .
b0b0 0
b0b00000000000000000000000000000010 1

#2550
b0b0 !
#2600
b0b1 !

b0b100000000000000000000000000000000000000000000111100111010101100110000000000000000000000000000000000000000000000000000000000000000 "
b0b0 #
b0b1 %
b0b000000000000000000000000000000000000000000000111100111010101100110000000000000000000000000000000000000000000000000000000000000111 '
b0b0 *
b0b1 +
b0b100000000000000000000000000000000000000000000111100111010101100110000000000000000000000000000000000000000000000000000000000000110 -
b0b00000000000000000000000000000011 1

#2650
b0b0 !
#2700
b0b1 !

b0b100000000000000000000000000000000000000000000111100111010101100110000000000000000000000000000000000000000000000000000000000000110 "
b0b1 ,
b0b1 .
b0b1 0
b0b00000000000000000000000000000100 1

#2750
b0b0 !
#2800
b0b1 !

b0b1 #
b0b0 %
b0b100000000000000000000000000000000000000000000111100111010101100110000000000000000000000000000000000000000000000000000000000000110 )
b0b1 *
b0b0 +
b0b0 ,
b0b0 .
b0b0 0
b0b00000000000000000000000000000000 1

#2850
b0b0 !
#2900
b0b1 !

b0b000000000000000000000000000000000000000000000111100111010101100110000000000000000000000000000000000000000000000000000000000000110 "
b0b0 #
b0b1 %
b0b000000000000000000000000000000000000000000000111100111010101100110000000000000000000000000000000000000000000000000000000000001000 '
b0b0 *
b0b1 +
b0b000000000000000000000000000000000000000000000111100111010101100110000000000000000000000000000000000000000000000000000000000000111 -
b0b00000000000000000000000000000001 1

#2950
b0b0 !
#3000
b0b1 !

b0b1 ,
b0b1 .
b0b1 0
b0b00000000000000000000000000000010 1

#3050
b0b0 !
#3100
b0b1 !

b0b1 #
b0b0 %
b0b000000000000000000000000000000000000000000000111100111010101100110000000000000000000000000000000000000000000000000000000000000110 )
b0b1 *
b0b0 +
b0b0 ,
b0b0 .
b0b0 0
b0b00000000000000000000000000000011 1

#3150
b0b0 !
#3200
b0b1 !

b0b0 #
b0b1 %
b0b100000000000000000000000000000000000000000000000111111011111010010000000000000000000000000000000000000000000000000000000000001001 '
b0b0 *
b0b1 +
b0b000000000000000000000000000000000000000000000111100111010101100110000000000000000000000000000000000000000000000000000000000001000 -
b0b00000000000000000000000000000100 1

#3250
b0b0 !
#3300
b0b1 !

b0b1 ,
b0b1 .
b0b1 0
b0b00000000000000000000000000000000 1

#3350
b0b0 !
#3400
b0b1 !

b0b1 #
b0b0 %
b0b1 *
b0b0 +
b0b0 ,
b0b0 .
b0b0 0
b0b00000000000000000000000000000001 1

#3450
b0b0 !
#3500
b0b1 !

b0b100000000000000000000000000000000000000000000000111111011111010010000000000000000000000000000000000000000000000000000000000000000 "
b0b0 #
b0b1 %
b0b100000000000000000000000000000000000000000000011111011101001110010000000000000000000000000000000000000000000000000000000000001010 '
b0b0 *
b0b1 +
b0b100000000000000000000000000000000000000000000000111111011111010010000000000000000000000000000000000000000000000000000000000001001 -
b0b00000000000000000000000000000010 1

#3550
b0b0 !
#3600
b0b1 !

b0b100000000000000000000000000000000000000000000000111111011111010010000000000000000000000000000000000000000000000000000000000001001 "
b0b1 ,
b0b1 .
b0b1 0
b0b00000000000000000000000000000011 1

#3650
b0b0 !
#3700
b0b1 !

b0b1 #
b0b0 %
b0b100000000000000000000000000000000000000000000000111111011111010010000000000000000000000000000000000000000000000000000000000001001 )
b0b1 *
b0b0 +
b0b0 ,
b0b0 .
b0b0 0
b0b00000000000000000000000000000100 1

#3750
b0b0 !
#3800
b0b1 !

b0b100000000000000000000000000000000000000000000011111011101001110010000000000000000000000000000000000000000000000000000000000000000 "
b0b0 #
b0b1 %
b0b000000000000000000000000000000000000000000000000111111011111010010000000000000000000000000000000000000000000000000000000000001011 '
b0b0 *
b0b1 +
b0b100000000000000000000000000000000000000000000011111011101001110010000000000000000000000000000000000000000000000000000000000001010 -
b0b00000000000000000000000000000000 1

#3850
b0b0 !
#3900
b0b1 !

b0b100000000000000000000000000000000000000000000011111011101001110010000000000000000000000000000000000000000000000000000000000001010 "
b0b1 ,
b0b1 .
b0b1 0
b0b00000000000000000000000000000001 1

#3950
b0b0 !
#4000
b0b1 !

b0b1 #
b0b0 %
b0b100000000000000000000000000000000000000000000011111011101001110010000000000000000000000000000000000000000000000000000000000001010 )
b0b1 *
b0b0 +
b0b0 ,
b0b0 .
b0b0 0
b0b00000000000000000000000000000010 1

#4050
b0b0 !
#4100
b0b1 !

b0b000000000000000000000000000000000000000000000000111111011111010010000000000000000000000000000000000000000000000000000000000001001 "
b0b0 #
b0b1 %
b0b000000000000000000000000000000000000000000000011111011101001110010000000000000000000000000000000000000000000000000000000000001100 '
b0b0 *
b0b1 +
b0b000000000000000000000000000000000000000000000000111111011111010010000000000000000000000000000000000000000000000000000000000001011 -
b0b00000000000000000000000000000011 1

#4150
b0b0 !
#4200
b0b1 !

b0b1 ,
b0b1 .
b0b1 0
b0b00000000000000000000000000000100 1

#4250
b0b0 !
#4300
b0b1 !

b0b1 #
b0b0 %
b0b000000000000000000000000000000000000000000000000111111011111010010000000000000000000000000000000000000000000000000000000000001001 )
b0b1 *
b0b0 +
b0b0 ,
b0b0 .
b0b0 0
b0b00000000000000000000000000000000 1

#4350
b0b0 !
#4400
b0b1 !

b0b000000000000000000000000000000000000000000000011111011101001110010000000000000000000000000000000000000000000000000000000000001010 "
b0b0 #
b0b1 %
b0b100000000000000000000000000000000000000000000010100111011000001010000000000000000000000000000000000000000000000000000000000001101 '
b0b0 *
b0b1 +
b0b000000000000000000000000000000000000000000000011111011101001110010000000000000000000000000000000000000000000000000000000000001100 -
b0b00000000000000000000000000000001 1

#4450
b0b0 !
#4500
b0b1 !

b0b1 ,
b0b1 .
b0b1 0
b0b00000000000000000000000000000010 1

#4550
b0b0 !
#4600
b0b1 !

b0b1 #
b0b0 %
b0b000000000000000000000000000000000000000000000011111011101001110010000000000000000000000000000000000000000000000000000000000001010 )
b0b1 *
b0b0 +
b0b0 ,
b0b0 .
b0b0 0
b0b00000000000000000000000000000011 1

#4650
b0b0 !
#4700
b0b1 !

b0b100000000000000000000000000000000000000000000010100111011000001010000000000000000000000000000000000000000000000000000000000000000 "
b0b0 #
b0b1 %
b0b000000000000000000000000000000000000000000000010100111011000001010000000000000000000000000000000000000000000000000000000000001110 '
b0b0 *
b0b1 +
b0b100000000000000000000000000000000000000000000010100111011000001010000000000000000000000000000000000000000000000000000000000001101 -
b0b00000000000000000000000000000100 1

#4750
b0b0 !
#4800
b0b1 !

b0b100000000000000000000000000000000000000000000010100111011000001010000000000000000000000000000000000000000000000000000000000001101 "
b0b1 ,
b0b1 .
b0b1 0
b0b00000000000000000000000000000000 1

#4850
b0b0 !
#4900
b0b1 !

b0b1 #
b0b0 %
b0b100000000000000000000000000000000000000000000010100111011000001010000000000000000000000000000000000000000000000000000000000001101 )
b0b1 *
b0b0 +
b0b0 ,
b0b0 .
b0b0 0
b0b00000000000000000000000000000001 1

#4950
b0b0 !
#5000
b0b1 !

b0b000000000000000000000000000000000000000000000010100111011000001010000000000000000000000000000000000000000000000000000000000001101 "
b0b0 #
b0b1 %
b0b000000000000000000000000000000000000000000000010100111011000001010000000000000000000000000000000000000000000000000000000000001111 '
b0b0 *
b0b1 +
b0b000000000000000000000000000000000000000000000010100111011000001010000000000000000000000000000000000000000000000000000000000001110 -
b0b00000000000000000000000000000010 1

#5050
b0b0 !
#5100
b0b1 !

b0b1 ,
b0b1 .
b0b1 0
b0b00000000000000000000000000000011 1

#5150
b0b0 !
#5200
b0b1 !

b0b1 #
b0b0 %
b0b000000000000000000000000000000000000000000000010100111011000001010000000000000000000000000000000000000000000000000000000000001101 )
b0b1 *
b0b0 +
b0b0 ,
b0b0 .
b0b0 0
b0b00000000000000000000000000000100 1

#5250
b0b0 !
#5300
b0b1 !

b0b0 #
b0b1 %
b0b000000000000000000000000000000000000000000000111100111010101100110000000000000000000000000000000000000000000000000000000000010000 '
b0b0 *
b0b1 +
b0b000000000000000000000000000000000000000000000010100111011000001010000000000000000000000000000000000000000000000000000000000001111 -
b0b00000000000000000000000000000000 1

#5350
b0b0 !
#5400
b0b1 !

b0b1 ,
b0b1 .
b0b1 0
b0b00000000000000000000000000000001 1

#5450
b0b0 !
#5500
b0b1 !

b0b1 #
b0b0 %
b0b1 *
b0b0 +
b0b0 ,
b0b0 .
b0b0 0
b0b00000000000000000000000000000010 1

#5550
b0b0 !
#5600
b0b1 !

b0b000000000000000000000000000000000000000000000111100111010101100110000000000000000000000000000000000000000000000000000000000000110 "
b0b0 #
b0b1 %
b0b100000000000000000000000000000000000000000000011001010100010101100000000000000000000000000000000000000000000000000000000000010001 '
b0b0 *
b0b1 +
b0b000000000000000000000000000000000000000000000111100111010101100110000000000000000000000000000000000000000000000000000000000010000 -
b0b00000000000000000000000000000011 1

#5650
b0b0 !
#5700
b0b1 !

b0b1 ,
b0b1 .
b0b1 0
b0b00000000000000000000000000000100 1

#5750
b0b0 !
#5800
b0b1 !

b0b1 #
b0b0 %
b0b000000000000000000000000000000000000000000000111100111010101100110000000000000000000000000000000000000000000000000000000000000110 )
b0b1 *
b0b0 +
b0b0 ,
b0b0 .
b0b0 0
b0b00000000000000000000000000000000 1

#5850
b0b0 !
#5900
b0b1 !

b0b100000000000000000000000000000000000000000000011001010100010101100000000000000000000000000000000000000000000000000000000000000000 "
b0b0 #
b0b1 %
b0b100000000000000000000000000000000000000000000101110101000110111010000000000000000000000000000000000000000000000000000000000010010 '
b0b0 *
b0b1 +
b0b100000000000000000000000000000000000000000000011001010100010101100000000000000000000000000000000000000000000000000000000000010001 -
b0b00000000000000000000000000000001 1

#5950
b0b0 !
#6000
b0b1 !

b0b100000000000000000000000000000000000000000000011001010100010101100000000000000000000000000000000000000000000000000000000000010001 "
b0b1 ,
b0b1 .
b0b1 0
b0b00000000000000000000000000000010 1

#6050
b0b0 !
#6100
b0b1 !

b0b1 #
b0b0 %
b0b100000000000000000000000000000000000000000000011001010100010101100000000000000000000000000000000000000000000000000000000000010001 )
b0b1 *
b0b0 +
b0b0 ,
b0b0 .
b0b0 0
b0b00000000000000000000000000000011 1

#6150
b0b0 !
#6200
b0b1 !

b0b100000000000000000000000000000000000000000000101110101000110111010000000000000000000000000000000000000000000000000000000000000000 "
b0b0 #
b0b1 %
b0b100000000000000000000000000000000000000000000100100110101010010100000000000000000000000000000000000000000000000000000000000010011 '
b0b0 *
b0b1 +
b0b100000000000000000000000000000000000000000000101110101000110111010000000000000000000000000000000000000000000000000000000000010010 -
b0b00000000000000000000000000000100 1

#6250
b0b0 !
#6300
b0b1 !

b0b100000000000000000000000000000000000000000000101110101000110111010000000000000000000000000000000000000000000000000000000000010010 "
b0b1 ,
b0b1 .
b0b1 0
b0b00000000000000000000000000000000 1

#6350
b0b0 !
#6400
b0b1 !

b0b1 #
b0b0 %
b0b100000000000000000000000000000000000000000000101110101000110111010000000000000000000000000000000000000000000000000000000000010010 )
b0b1 *
b0b0 +
b0b0 ,
b0b0 .
b0b0 0
b0b00000000000000000000000000000001 1

#6450
b0b0 !
#6500
b0b1 !

b0b100000000000000000000000000000000000000000000100100110101010010100000000000000000000000000000000000000000000000000000000000000000 "
b0b0 #
b0b1 %
b0b100000000000000000000000000000000000000000000011001100011101111110000000000000000000000000000000000000000000000000000000000010100 '
b0b0 *
b0b1 +
b0b100000000000000000000000000000000000000000000100100110101010010100000000000000000000000000000000000000000000000000000000000010011 -
b0b00000000000000000000000000000010 1

#6550
b0b0 !
#6600
b0b1 !

b0b100000000000000000000000000000000000000000000100100110101010010100000000000000000000000000000000000000000000000000000000000010011 "
b0b1 ,
b0b1 .
b0b1 0
b0b00000000000000000000000000000011 1

#6650
b0b0 !
#6700
b0b1 !

b0b1 #
b0b0 %
b0b100000000000000000000000000000000000000000000100100110101010010100000000000000000000000000000000000000000000000000000000000010011 )
b0b1 *
b0b0 +
b0b0 ,
b0b0 .
b0b0 0
b0b00000000000000000000000000000100 1

#6750
b0b0 !
#6800
b0b1 !

b0b100000000000000000000000000000000000000000000011001100011101111110000000000000000000000000000000000000000000000000000000000000000 "
b0b0 #
b0b1 %
b0b100000000000000000000000000000000000000000000110010110011101001110000000000000000000000000000000000000000000000000000000000010101 '
b0b0 *
b0b1 +
b0b100000000000000000000000000000000000000000000011001100011101111110000000000000000000000000000000000000000000000000000000000010100 -
b0b00000000000000000000000000000000 1

#6850
b0b0 !
#6900
b0b1 !

b0b100000000000000000000000000000000000000000000011001100011101111110000000000000000000000000000000000000000000000000000000000010100 "
b0b1 ,
b0b1 .
b0b1 0
b0b00000000000000000000000000000001 1

#6950
b0b0 !
#7000
b0b1 !

b0b1 #
b0b0 %
b0b100000000000000000000000000000000000000000000011001100011101111110000000000000000000000000000000000000000000000000000000000010100 )
b0b1 *
b0b0 +
b0b0 ,
b0b0 .
b0b0 0
b0b00000000000000000000000000000010 1

#7050
b0b0 !
#7100
b0b1 !

b0b100000000000000000000000000000000000000000000110010110011101001110000000000000000000000000000000000000000000000000000000000000000 "
b0b0 #
b0b1 %
b0b100000000000000000000000000000000000000000000010001011001001000110000000000000000000000000000000000000000000000000000000000010110 '
b0b0 *
b0b1 +
b0b100000000000000000000000000000000000000000000110010110011101001110000000000000000000000000000000000000000000000000000000000010101 -
b0b00000000000000000000000000000011 1

#7150
b0b0 !
#7200
b0b1 !

b0b100000000000000000000000000000000000000000000110010110011101001110000000000000000000000000000000000000000000000000000000000010101 "
b0b1 ,
b0b1 .
b0b1 0
b0b00000000000000000000000000000100 1

#7250
b0b0 !
#7300
b0b1 !

b0b1 #
b0b0 %
b0b100000000000000000000000000000000000000000000110010110011101001110000000000000000000000000000000000000000000000000000000000010101 )
b0b1 *
b0b0 +
b0b0 ,
b0b0 .
b0b0 0
b0b00000000000000000000000000000000 1

#7350
b0b0 !
#7400
b0b1 !

b0b100000000000000000000000000000000000000000000010001011001001000110000000000000000000000000000000000000000000000000000000000000000 "
b0b0 #
b0b1 %
b0b000000000000000000000000000000000000000000000010100111011000001010000000000000000000000000000000000000000000000000000000000010111 '
b0b0 *
b0b1 +
b0b100000000000000000000000000000000000000000000010001011001001000110000000000000000000000000000000000000000000000000000000000010110 -
b0b00000000000000000000000000000001 1

#7450
b0b0 !
#7500
b0b1 !

b0b100000000000000000000000000000000000000000000010001011001001000110000000000000000000000000000000000000000000000000000000000010110 "
b0b1 ,
b0b1 .
b0b1 0
b0b00000000000000000000000000000010 1

#7550
b0b0 !
#7600
b0b1 !

b0b1 #
b0b0 %
b0b100000000000000000000000000000000000000000000010001011001001000110000000000000000000000000000000000000000000000000000000000010110 )
b0b1 *
b0b0 +
b0b0 ,
b0b0 .
b0b0 0
b0b00000000000000000000000000000011 1

#7650
b0b0 !
#7700
b0b1 !

b0b000000000000000000000000000000000000000000000010100111011000001010000000000000000000000000000000000000000000000000000000000001101 "
b0b0 #
b0b1 %
b0b000000000000000000000000000000000000000000000010001011001001000110000000000000000000000000000000000000000000000000000000000011000 '
b0b0 *
b0b1 +
b0b000000000000000000000000000000000000000000000010100111011000001010000000000000000000000000000000000000000000000000000000000010111 -
b0b00000000000000000000000000000100 1

#7750
b0b0 !
#7800
b0b1 !

b0b1 ,
b0b1 .
b0b1 0
b0b00000000000000000000000000000000 1

#7850
b0b0 !
#7900
b0b1 !

b0b1 #
b0b0 %
b0b000000000000000000000000000000000000000000000010100111011000001010000000000000000000000000000000000000000000000000000000000001101 )
b0b1 *
b0b0 +
b0b0 ,
b0b0 .
b0b0 0
b0b00000000000000000000000000000001 1

#7950
b0b0 !
#8000
b0b1 !

b0b000000000000000000000000000000000000000000000010001011001001000110000000000000000000000000000000000000000000000000000000000010110 "
b0b0 #
b0b1 %
b0b000000000000000000000000000000000000000000000110100101101110011110000000000000000000000000000000000000000000000000000000000011001 '
b0b0 *
b0b1 +
b0b000000000000000000000000000000000000000000000010001011001001000110000000000000000000000000000000000000000000000000000000000011000 -
b0b00000000000000000000000000000010 1

#8050
b0b0 !
#8100
b0b1 !

b0b1 ,
b0b1 .
b0b1 0
b0b00000000000000000000000000000011 1

#8150
b0b0 !
#8200
b0b1 !

b0b1 #
b0b0 %
b0b000000000000000000000000000000000000000000000010001011001001000110000000000000000000000000000000000000000000000000000000000010110 )
b0b1 *
b0b0 +
b0b0 ,
b0b0 .
b0b0 0
b0b00000000000000000000000000000100 1

#8250
b0b0 !
#8300
b0b1 !

b0b000000000000000000000000000000000000000000000110100101101110011110000000000000000000000000000000000000000000000000000000000000101 "
b0b0 #
b0b1 %
b0b100000000000000000000000000000000000000000000110110101101010001110000000000000000000000000000000000000000000000000000000000011010 '
b0b0 *
b0b1 +
b0b000000000000000000000000000000000000000000000110100101101110011110000000000000000000000000000000000000000000000000000000000011001 -
b0b00000000000000000000000000000000 1

#8350
b0b0 !
#8400
b0b1 !

b0b1 ,
b0b1 .
b0b1 0
b0b00000000000000000000000000000001 1

#8450
b0b0 !
#8500
b0b1 !

b0b1 #
b0b0 %
b0b000000000000000000000000000000000000000000000110100101101110011110000000000000000000000000000000000000000000000000000000000000101 )
b0b1 *
b0b0 +
b0b0 ,
b0b0 .
b0b0 0
b0b00000000000000000000000000000010 1

#8550
b0b0 !
#8600
b0b1 !

b0b100000000000000000000000000000000000000000000110110101101010001110000000000000000000000000000000000000000000000000000000000000000 "
b0b0 #
b0b1 %
b0b100000000000000000000000000000000000000000000011111001001010110010000000000000000000000000000000000000000000000000000000000011011 '
b0b0 *
b0b1 +
b0b100000000000000000000000000000000000000000000110110101101010001110000000000000000000000000000000000000000000000000000000000011010 -
b0b00000000000000000000000000000011 1

#8650
b0b0 !
#8700
b0b1 !

b0b100000000000000000000000000000000000000000000110110101101010001110000000000000000000000000000000000000000000000000000000000011010 "
b0b1 ,
b0b1 .
b0b1 0
b0b00000000000000000000000000000100 1

#8750
b0b0 !
#8800
b0b1 !

b0b1 #
b0b0 %
b0b100000000000000000000000000000000000000000000110110101101010001110000000000000000000000000000000000000000000000000000000000011010 )
b0b1 *
b0b0 +
b0b0 ,
b0b0 .
b0b0 0
b0b00000000000000000000000000000000 1

#8850
b0b0 !
#8900
b0b1 !

b0b100000000000000000000000000000000000000000000011111001001010110010000000000000000000000000000000000000000000000000000000000000000 "
b0b0 #
b0b1 %
b0b000000000000000000000000000000000000000000000011111001001010110010000000000000000000000000000000000000000000000000000000000011100 '
b0b0 *
b0b1 +
b0b100000000000000000000000000000000000000000000011111001001010110010000000000000000000000000000000000000000000000000000000000011011 -
b0b00000000000000000000000000000001 1

#8950
b0b0 !
#9000
b0b1 !

b0b100000000000000000000000000000000000000000000011111001001010110010000000000000000000000000000000000000000000000000000000000011011 "
b0b1 ,
b0b1 .
b0b1 0
b0b00000000000000000000000000000010 1

#9050
b0b0 !
#9100
b0b1 !

b0b1 #
b0b0 %
b0b100000000000000000000000000000000000000000000011111001001010110010000000000000000000000000000000000000000000000000000000000011011 )
b0b1 *
b0b0 +
b0b0 ,
b0b0 .
b0b0 0
b0b00000000000000000000000000000011 1

#9150
b0b0 !
#9200
b0b1 !

b0b000000000000000000000000000000000000000000000011111001001010110010000000000000000000000000000000000000000000000000000000000011011 "
b0b0 #
b0b1 %
b0b000000000000000000000000000000000000000000000110110101101010001110000000000000000000000000000000000000000000000000000000000011101 '
b0b0 *
b0b1 +
b0b000000000000000000000000000000000000000000000011111001001010110010000000000000000000000000000000000000000000000000000000000011100 -
b0b00000000000000000000000000000100 1

#9250
b0b0 !
#9300
b0b1 !

b0b1 ,
b0b1 .
b0b1 0
b0b00000000000000000000000000000000 1

#9350
b0b0 !
#9400
b0b1 !

b0b1 #
b0b0 %
b0b000000000000000000000000000000000000000000000011111001001010110010000000000000000000000000000000000000000000000000000000000011011 )
b0b1 *
b0b0 +
b0b0 ,
b0b0 .
b0b0 0
b0b00000000000000000000000000000001 1

#9450
b0b0 !
#9500
b0b1 !

b0b000000000000000000000000000000000000000000000110110101101010001110000000000000000000000000000000000000000000000000000000000011010 "
b0b0 #
b0b1 %
b0b100000000000000000000000000000000000000000000011011010111101101100000000000000000000000000000000000000000000000000000000000011110 '
b0b0 *
b0b1 +
b0b000000000000000000000000000000000000000000000110110101101010001110000000000000000000000000000000000000000000000000000000000011101 -
b0b00000000000000000000000000000010 1

#9550
b0b0 !
#9600
b0b1 !

b0b1 ,
b0b1 .
b0b1 0
b0b00000000000000000000000000000011 1

#9650
b0b0 !
#9700
b0b1 !

b0b1 #
b0b0 %
b0b000000000000000000000000000000000000000000000110110101101010001110000000000000000000000000000000000000000000000000000000000011010 )
b0b1 *
b0b0 +
b0b0 ,
b0b0 .
b0b0 0
b0b00000000000000000000000000000100 1

#9750
b0b0 !
#9800
b0b1 !

b0b100000000000000000000000000000000000000000000011011010111101101100000000000000000000000000000000000000000000000000000000000000000 "
b0b0 #
b0b1 %
b0b100000000000000000000000000000000000000000000101110011110001110110000000000000000000000000000000000000000000000000000000000011111 '
b0b0 *
b0b1 +
b0b100000000000000000000000000000000000000000000011011010111101101100000000000000000000000000000000000000000000000000000000000011110 -
b0b00000000000000000000000000000000 1

#9850
b0b0 !
#9900
b0b1 !

b0b100000000000000000000000000000000000000000000011011010111101101100000000000000000000000000000000000000000000000000000000000011110 "
b0b1 ,
b0b1 .
b0b1 0
b0b00000000000000000000000000000001 1

#9950
b0b0 !
