build/DRAMSimPYMTLWrapper.block_test.dramwrapper_test__test_random_write.vcd
$date
  Mon May  8 14:20:02 2023
$end
$version
  PyMTL 3 (Mamba)
$end
$timescale
 10ps
$end

$scope module top $end
  $var reg 1 ! reset $end
  $var reg 1 % clk $end
  $scope module sink $end
    $var reg 1 " recv.rdy $end
    $var reg 1 % clk $end
    $var reg 1 ! reset $end
    $var reg 129 ' recv.msg $end
    $var reg 1 $ recv.val $end
  $upscope $end
  $scope module memmodel $end
    $var reg 1 $ ostream.val $end
    $var reg 1 * istream.rdy $end
    $var reg 32 / rtl_clk_cycles $end
    $var reg 1 " ostream.rdy $end
    $var reg 1 0 in_flight $end
    $var reg 1 % clk $end
    $var reg 1 1 memsystem_rdy $end
    $var reg 129 ( istream.msg $end
    $var reg 1 ! reset $end
    $var reg 1 ) istream.val $end
    $var reg 129 ' ostream.msg $end
    $scope module queue2 $end
      $var reg 1 " send.rdy $end
      $var reg 1 ! reset $end
      $var reg 1 % clk $end
      $var reg 1 # recv.rdy $end
      $var reg 129 ' send.msg $end
      $var reg 1 $ send.val $end
      $var reg 1 + recv.val $end
      $var reg 129 & recv.msg $end
      $var reg 1 $ count $end
      $scope module q $end
        $var reg 1 " send.rdy $end
        $var reg 1 $ count $end
        $var reg 1 $ full $end
        $var reg 129 & recv.msg $end
        $var reg 129 ' send.msg $end
        $var reg 1 % clk $end
        $var reg 1 ! reset $end
        $var reg 1 + recv.val $end
        $var reg 1 $ send.val $end
        $var reg 129 ' entry $end
        $var reg 1 # recv.rdy $end
      $upscope $end
    $upscope $end
    $scope module queue1 $end
      $var reg 129 ( recv.msg $end
      $var reg 1 ! reset $end
      $var reg 1 , count $end
      $var reg 1 ) recv.val $end
      $var reg 129 - send.msg $end
      $var reg 1 * recv.rdy $end
      $var reg 1 % clk $end
      $var reg 1 , send.val $end
      $var reg 1 . send.rdy $end
      $scope module q $end
        $var reg 1 * recv.rdy $end
        $var reg 1 . send.rdy $end
        $var reg 1 , count $end
        $var reg 129 ( recv.msg $end
        $var reg 1 % clk $end
        $var reg 1 , full $end
        $var reg 129 - send.msg $end
        $var reg 1 ! reset $end
        $var reg 1 ) recv.val $end
        $var reg 1 , send.val $end
        $var reg 129 - entry $end
      $upscope $end
    $upscope $end
  $upscope $end
  $scope module src $end
    $var reg 1 ) send.val $end
    $var reg 1 * send.rdy $end
    $var reg 1 % clk $end
    $var reg 129 ( send.msg $end
    $var reg 1 ! reset $end
  $upscope $end
$upscope $end
$enddefinitions $end

b0b0 !
b0b0 "
b0b0 #
b0b0 $
b0b0 %
b0b000000000000000000000000000000000000000000000000000000000000000000000000000000000000000000000000000000000000000000000000000000000 &
b0b000000000000000000000000000000000000000000000000000000000000000000000000000000000000000000000000000000000000000000000000000000000 '
b0b000000000000000000000000000000000000000000000000000000000000000000000000000000000000000000000000000000000000000000000000000000000 (
b0b0 )
b0b0 *
b0b0 +
b0b0 ,
b0b000000000000000000000000000000000000000000000000000000000000000000000000000000000000000000000000000000000000000000000000000000000 -
b0b0 .
b0b00000000000000000000000000000000 /
b0b0 0
b0b0 1

#0
b0b1 %

b0b1 !
b0b1 #
b0b000000000000000000000000000000000000000000000000000000000000000000000000000000000000000000000000000000000000000000000000000000000 &
b0b0 )
b0b1 *
b0b000000000000000000000000000000000000000000000000000000000000000000000000000000000000000000000000000000000000000000000000000000000 -
b0b0 .
b0b00000000000000000000000000000000 /
b0b0 0

#50
b0b0 %
#100
b0b1 %

b0b1 1

#150
b0b0 %
#200
b0b1 %


#250
b0b0 %
#300
b0b1 %

b0b0 !

#350
b0b0 %
#400
b0b1 %

b0b00000000000000000000000000000001 /

#450
b0b0 %
#500
b0b1 %

b0b00000000000000000000000000000010 /

#550
b0b0 %
#600
b0b1 %

b0b00000000000000000000000000000011 /

#650
b0b0 %
#700
b0b1 %

b0b100000000000000000000000000000000000000000000010011100101111100010000000000000000000000000000000000000000000000000000000000000000 (
b0b1 )
b0b00000000000000000000000000000100 /

#750
b0b0 %
#800
b0b1 %

b0b100000000000000000000000000000000000000000000010011100101111100010000000000000000000000000000000000000000000000000000000000000000 &
b0b100000000000000000000000000000000000000000110110100101110100111000000000000000000000000000000000000000000000000000000000000000001 (
b0b0 *
b0b1 ,
b0b100000000000000000000000000000000000000000000010011100101111100010000000000000000000000000000000000000000000000000000000000000000 -
b0b00000000000000000000000000000000 /

#850
b0b0 %
#900
b0b1 %

b0b1 "
b0b1 +
b0b1 .
b0b00000000000000000000000000000001 /
b0b1 0

#950
b0b0 %
#1000
b0b1 %

b0b0 #
b0b1 $
b0b100000000000000000000000000000000000000000000010011100101111100010000000000000000000000000000000000000000000000000000000000000000 '
b0b1 *
b0b0 +
b0b0 ,
b0b0 .
b0b00000000000000000000000000000010 /
b0b0 0

#1050
b0b0 %
#1100
b0b1 %

b0b1 #
b0b0 $
b0b100000000000000000000000000000000000000000110110100101110100111000000000000000000000000000000000000000000000000000000000000000000 &
b0b100000000000000000000000000000000000000000111100000111001110101000000000000000000000000000000000000000000000000000000000000000010 (
b0b0 *
b0b1 ,
b0b100000000000000000000000000000000000000000110110100101110100111000000000000000000000000000000000000000000000000000000000000000001 -
b0b00000000000000000000000000000011 /

#1150
b0b0 %
#1200
b0b1 %

b0b100000000000000000000000000000000000000000110110100101110100111000000000000000000000000000000000000000000000000000000000000000001 &
b0b1 +
b0b1 .
b0b00000000000000000000000000000100 /
b0b1 0

#1250
b0b0 %
#1300
b0b1 %

b0b0 #
b0b1 $
b0b100000000000000000000000000000000000000000110110100101110100111000000000000000000000000000000000000000000000000000000000000000001 '
b0b1 *
b0b0 +
b0b0 ,
b0b0 .
b0b00000000000000000000000000000000 /
b0b0 0

#1350
b0b0 %
#1400
b0b1 %

b0b1 #
b0b0 $
b0b100000000000000000000000000000000000000000111100000111001110101000000000000000000000000000000000000000000000000000000000000000000 &
b0b100000000000000000000000000000000000000000110110100010100011011010000000000000000000000000000000000000000000000000000000000000011 (
b0b0 *
b0b1 ,
b0b100000000000000000000000000000000000000000111100000111001110101000000000000000000000000000000000000000000000000000000000000000010 -
b0b00000000000000000000000000000001 /

#1450
b0b0 %
#1500
b0b1 %

b0b100000000000000000000000000000000000000000111100000111001110101000000000000000000000000000000000000000000000000000000000000000010 &
b0b1 +
b0b1 .
b0b00000000000000000000000000000010 /
b0b1 0

#1550
b0b0 %
#1600
b0b1 %

b0b0 #
b0b1 $
b0b100000000000000000000000000000000000000000111100000111001110101000000000000000000000000000000000000000000000000000000000000000010 '
b0b1 *
b0b0 +
b0b0 ,
b0b0 .
b0b00000000000000000000000000000011 /
b0b0 0

#1650
b0b0 %
#1700
b0b1 %

b0b1 #
b0b0 $
b0b100000000000000000000000000000000000000000110110100010100011011010000000000000000000000000000000000000000000000000000000000000000 &
b0b100000000000000000000000000000000000000000110000010101100100101010000000000000000000000000000000000000000000000000000000000000100 (
b0b0 *
b0b1 ,
b0b100000000000000000000000000000000000000000110110100010100011011010000000000000000000000000000000000000000000000000000000000000011 -
b0b00000000000000000000000000000100 /

#1750
b0b0 %
#1800
b0b1 %

b0b100000000000000000000000000000000000000000110110100010100011011010000000000000000000000000000000000000000000000000000000000000011 &
b0b1 +
b0b1 .
b0b00000000000000000000000000000000 /
b0b1 0

#1850
b0b0 %
#1900
b0b1 %

b0b0 #
b0b1 $
b0b100000000000000000000000000000000000000000110110100010100011011010000000000000000000000000000000000000000000000000000000000000011 '
b0b1 *
b0b0 +
b0b0 ,
b0b0 .
b0b00000000000000000000000000000001 /
b0b0 0

#1950
b0b0 %
#2000
b0b1 %

b0b1 #
b0b0 $
b0b100000000000000000000000000000000000000000110000010101100100101010000000000000000000000000000000000000000000000000000000000000000 &
b0b100000000000000000000000000000000000000000111011100010000100110110000000000000000000000000000000000000000000000000000000000000101 (
b0b0 *
b0b1 ,
b0b100000000000000000000000000000000000000000110000010101100100101010000000000000000000000000000000000000000000000000000000000000100 -
b0b00000000000000000000000000000010 /

#2050
b0b0 %
#2100
b0b1 %

b0b100000000000000000000000000000000000000000110000010101100100101010000000000000000000000000000000000000000000000000000000000000100 &
b0b1 +
b0b1 .
b0b00000000000000000000000000000011 /
b0b1 0

#2150
b0b0 %
#2200
b0b1 %

b0b0 #
b0b1 $
b0b100000000000000000000000000000000000000000110000010101100100101010000000000000000000000000000000000000000000000000000000000000100 '
b0b1 *
b0b0 +
b0b0 ,
b0b0 .
b0b00000000000000000000000000000100 /
b0b0 0

#2250
b0b0 %
#2300
b0b1 %

b0b1 #
b0b0 $
b0b100000000000000000000000000000000000000000111011100010000100110110000000000000000000000000000000000000000000000000000000000000000 &
b0b100000000000000000000000000000000000000000101010011011110110100110000000000000000000000000000000000000000000000000000000000000110 (
b0b0 *
b0b1 ,
b0b100000000000000000000000000000000000000000111011100010000100110110000000000000000000000000000000000000000000000000000000000000101 -
b0b00000000000000000000000000000000 /

#2350
b0b0 %
#2400
b0b1 %

b0b100000000000000000000000000000000000000000111011100010000100110110000000000000000000000000000000000000000000000000000000000000101 &
b0b1 +
b0b1 .
b0b00000000000000000000000000000001 /
b0b1 0

#2450
b0b0 %
#2500
b0b1 %

b0b0 #
b0b1 $
b0b100000000000000000000000000000000000000000111011100010000100110110000000000000000000000000000000000000000000000000000000000000101 '
b0b1 *
b0b0 +
b0b0 ,
b0b0 .
b0b00000000000000000000000000000010 /
b0b0 0

#2550
b0b0 %
#2600
b0b1 %

b0b1 #
b0b0 $
b0b100000000000000000000000000000000000000000101010011011110110100110000000000000000000000000000000000000000000000000000000000000000 &
b0b100000000000000000000000000000000000000000110010100010011100010100000000000000000000000000000000000000000000000000000000000000111 (
b0b0 *
b0b1 ,
b0b100000000000000000000000000000000000000000101010011011110110100110000000000000000000000000000000000000000000000000000000000000110 -
b0b00000000000000000000000000000011 /

#2650
b0b0 %
#2700
b0b1 %

b0b100000000000000000000000000000000000000000101010011011110110100110000000000000000000000000000000000000000000000000000000000000110 &
b0b1 +
b0b1 .
b0b00000000000000000000000000000100 /
b0b1 0

#2750
b0b0 %
#2800
b0b1 %

b0b0 #
b0b1 $
b0b100000000000000000000000000000000000000000101010011011110110100110000000000000000000000000000000000000000000000000000000000000110 '
b0b1 *
b0b0 +
b0b0 ,
b0b0 .
b0b00000000000000000000000000000000 /
b0b0 0

#2850
b0b0 %
#2900
b0b1 %

b0b1 #
b0b0 $
b0b100000000000000000000000000000000000000000110010100010011100010100000000000000000000000000000000000000000000000000000000000000000 &
b0b100000000000000000000000000000000000000000101110101100000010001010000000000000000000000000000000000000000000000000000000000001000 (
b0b0 *
b0b1 ,
b0b100000000000000000000000000000000000000000110010100010011100010100000000000000000000000000000000000000000000000000000000000000111 -
b0b00000000000000000000000000000001 /

#2950
b0b0 %
#3000
b0b1 %

b0b100000000000000000000000000000000000000000110010100010011100010100000000000000000000000000000000000000000000000000000000000000111 &
b0b1 +
b0b1 .
b0b00000000000000000000000000000010 /
b0b1 0

#3050
b0b0 %
#3100
b0b1 %

b0b0 #
b0b1 $
b0b100000000000000000000000000000000000000000110010100010011100010100000000000000000000000000000000000000000000000000000000000000111 '
b0b1 *
b0b0 +
b0b0 ,
b0b0 .
b0b00000000000000000000000000000011 /
b0b0 0

#3150
b0b0 %
#3200
b0b1 %

b0b1 #
b0b0 $
b0b100000000000000000000000000000000000000000101110101100000010001010000000000000000000000000000000000000000000000000000000000000000 &
b0b100000000000000000000000000000000000000000110100001101100010100010000000000000000000000000000000000000000000000000000000000001001 (
b0b0 *
b0b1 ,
b0b100000000000000000000000000000000000000000101110101100000010001010000000000000000000000000000000000000000000000000000000000001000 -
b0b00000000000000000000000000000100 /

#3250
b0b0 %
#3300
b0b1 %

b0b100000000000000000000000000000000000000000101110101100000010001010000000000000000000000000000000000000000000000000000000000001000 &
b0b1 +
b0b1 .
b0b00000000000000000000000000000000 /
b0b1 0

#3350
b0b0 %
#3400
b0b1 %

b0b0 #
b0b1 $
b0b100000000000000000000000000000000000000000101110101100000010001010000000000000000000000000000000000000000000000000000000000001000 '
b0b1 *
b0b0 +
b0b0 ,
b0b0 .
b0b00000000000000000000000000000001 /
b0b0 0

#3450
b0b0 %
#3500
b0b1 %

b0b1 #
b0b0 $
b0b100000000000000000000000000000000000000000110100001101100010100010000000000000000000000000000000000000000000000000000000000000000 &
b0b100000000000000000000000000000000000000000110000110011110110100010000000000000000000000000000000000000000000000000000000000001010 (
b0b0 *
b0b1 ,
b0b100000000000000000000000000000000000000000110100001101100010100010000000000000000000000000000000000000000000000000000000000001001 -
b0b00000000000000000000000000000010 /

#3550
b0b0 %
#3600
b0b1 %

b0b100000000000000000000000000000000000000000110100001101100010100010000000000000000000000000000000000000000000000000000000000001001 &
b0b1 +
b0b1 .
b0b00000000000000000000000000000011 /
b0b1 0

#3650
b0b0 %
#3700
b0b1 %

b0b0 #
b0b1 $
b0b100000000000000000000000000000000000000000110100001101100010100010000000000000000000000000000000000000000000000000000000000001001 '
b0b1 *
b0b0 +
b0b0 ,
b0b0 .
b0b00000000000000000000000000000100 /
b0b0 0

#3750
b0b0 %
#3800
b0b1 %

b0b1 #
b0b0 $
b0b100000000000000000000000000000000000000000110000110011110110100010000000000000000000000000000000000000000000000000000000000000000 &
b0b100000000000000000000000000000000000000001000001000001101010001100000000000000000000000000000000000000000000000000000000000001011 (
b0b0 *
b0b1 ,
b0b100000000000000000000000000000000000000000110000110011110110100010000000000000000000000000000000000000000000000000000000000001010 -
b0b00000000000000000000000000000000 /

#3850
b0b0 %
#3900
b0b1 %

b0b100000000000000000000000000000000000000000110000110011110110100010000000000000000000000000000000000000000000000000000000000001010 &
b0b1 +
b0b1 .
b0b00000000000000000000000000000001 /
b0b1 0

#3950
b0b0 %
#4000
b0b1 %

b0b0 #
b0b1 $
b0b100000000000000000000000000000000000000000110000110011110110100010000000000000000000000000000000000000000000000000000000000001010 '
b0b1 *
b0b0 +
b0b0 ,
b0b0 .
b0b00000000000000000000000000000010 /
b0b0 0

#4050
b0b0 %
#4100
b0b1 %

b0b1 #
b0b0 $
b0b100000000000000000000000000000000000000001000001000001101010001100000000000000000000000000000000000000000000000000000000000000000 &
b0b100000000000000000000000000000000000000000100010010000110111111100000000000000000000000000000000000000000000000000000000000001100 (
b0b0 *
b0b1 ,
b0b100000000000000000000000000000000000000001000001000001101010001100000000000000000000000000000000000000000000000000000000000001011 -
b0b00000000000000000000000000000011 /

#4150
b0b0 %
#4200
b0b1 %

b0b100000000000000000000000000000000000000001000001000001101010001100000000000000000000000000000000000000000000000000000000000001011 &
b0b1 +
b0b1 .
b0b00000000000000000000000000000100 /
b0b1 0

#4250
b0b0 %
#4300
b0b1 %

b0b0 #
b0b1 $
b0b100000000000000000000000000000000000000001000001000001101010001100000000000000000000000000000000000000000000000000000000000001011 '
b0b1 *
b0b0 +
b0b0 ,
b0b0 .
b0b00000000000000000000000000000000 /
b0b0 0

#4350
b0b0 %
#4400
b0b1 %

b0b1 #
b0b0 $
b0b100000000000000000000000000000000000000000100010010000110111111100000000000000000000000000000000000000000000000000000000000000000 &
b0b100000000000000000000000000000000000000000100011010111001010010100000000000000000000000000000000000000000000000000000000000001101 (
b0b0 *
b0b1 ,
b0b100000000000000000000000000000000000000000100010010000110111111100000000000000000000000000000000000000000000000000000000000001100 -
b0b00000000000000000000000000000001 /

#4450
b0b0 %
#4500
b0b1 %

b0b100000000000000000000000000000000000000000100010010000110111111100000000000000000000000000000000000000000000000000000000000001100 &
b0b1 +
b0b1 .
b0b00000000000000000000000000000010 /
b0b1 0

#4550
b0b0 %
#4600
b0b1 %

b0b0 #
b0b1 $
b0b100000000000000000000000000000000000000000100010010000110111111100000000000000000000000000000000000000000000000000000000000001100 '
b0b1 *
b0b0 +
b0b0 ,
b0b0 .
b0b00000000000000000000000000000011 /
b0b0 0

#4650
b0b0 %
#4700
b0b1 %

b0b1 #
b0b0 $
b0b100000000000000000000000000000000000000000100011010111001010010100000000000000000000000000000000000000000000000000000000000000000 &
b0b100000000000000000000000000000000000000000100000001001011010110110000000000000000000000000000000000000000000000000000000000001110 (
b0b0 *
b0b1 ,
b0b100000000000000000000000000000000000000000100011010111001010010100000000000000000000000000000000000000000000000000000000000001101 -
b0b00000000000000000000000000000100 /

#4750
b0b0 %
#4800
b0b1 %

b0b100000000000000000000000000000000000000000100011010111001010010100000000000000000000000000000000000000000000000000000000000001101 &
b0b1 +
b0b1 .
b0b00000000000000000000000000000000 /
b0b1 0

#4850
b0b0 %
#4900
b0b1 %

b0b0 #
b0b1 $
b0b100000000000000000000000000000000000000000100011010111001010010100000000000000000000000000000000000000000000000000000000000001101 '
b0b1 *
b0b0 +
b0b0 ,
b0b0 .
b0b00000000000000000000000000000001 /
b0b0 0

#4950
b0b0 %
#5000
b0b1 %

b0b1 #
b0b0 $
b0b100000000000000000000000000000000000000000100000001001011010110110000000000000000000000000000000000000000000000000000000000000000 &
b0b100000000000000000000000000000000000000000100000001000011111001000000000000000000000000000000000000000000000000000000000000001111 (
b0b0 *
b0b1 ,
b0b100000000000000000000000000000000000000000100000001001011010110110000000000000000000000000000000000000000000000000000000000001110 -
b0b00000000000000000000000000000010 /

#5050
b0b0 %
#5100
b0b1 %

b0b100000000000000000000000000000000000000000100000001001011010110110000000000000000000000000000000000000000000000000000000000001110 &
b0b1 +
b0b1 .
b0b00000000000000000000000000000011 /
b0b1 0

#5150
b0b0 %
#5200
b0b1 %

b0b0 #
b0b1 $
b0b100000000000000000000000000000000000000000100000001001011010110110000000000000000000000000000000000000000000000000000000000001110 '
b0b1 *
b0b0 +
b0b0 ,
b0b0 .
b0b00000000000000000000000000000100 /
b0b0 0

#5250
b0b0 %
#5300
b0b1 %

b0b1 #
b0b0 $
b0b100000000000000000000000000000000000000000100000001000011111001000000000000000000000000000000000000000000000000000000000000000000 &
b0b100000000000000000000000000000000000000000010110101110101110110100000000000000000000000000000000000000000000000000000000000010000 (
b0b0 *
b0b1 ,
b0b100000000000000000000000000000000000000000100000001000011111001000000000000000000000000000000000000000000000000000000000000001111 -
b0b00000000000000000000000000000000 /

#5350
b0b0 %
#5400
b0b1 %

b0b100000000000000000000000000000000000000000100000001000011111001000000000000000000000000000000000000000000000000000000000000001111 &
b0b1 +
b0b1 .
b0b00000000000000000000000000000001 /
b0b1 0

#5450
b0b0 %
#5500
b0b1 %

b0b0 #
b0b1 $
b0b100000000000000000000000000000000000000000100000001000011111001000000000000000000000000000000000000000000000000000000000000001111 '
b0b1 *
b0b0 +
b0b0 ,
b0b0 .
b0b00000000000000000000000000000010 /
b0b0 0

#5550
b0b0 %
#5600
b0b1 %

b0b1 #
b0b0 $
b0b100000000000000000000000000000000000000000010110101110101110110100000000000000000000000000000000000000000000000000000000000000000 &
b0b100000000000000000000000000000000000000001000010100101110010010000000000000000000000000000000000000000000000000000000000000010001 (
b0b0 *
b0b1 ,
b0b100000000000000000000000000000000000000000010110101110101110110100000000000000000000000000000000000000000000000000000000000010000 -
b0b00000000000000000000000000000011 /

#5650
b0b0 %
#5700
b0b1 %

b0b100000000000000000000000000000000000000000010110101110101110110100000000000000000000000000000000000000000000000000000000000010000 &
b0b1 +
b0b1 .
b0b00000000000000000000000000000100 /
b0b1 0

#5750
b0b0 %
#5800
b0b1 %

b0b0 #
b0b1 $
b0b100000000000000000000000000000000000000000010110101110101110110100000000000000000000000000000000000000000000000000000000000010000 '
b0b1 *
b0b0 +
b0b0 ,
b0b0 .
b0b00000000000000000000000000000000 /
b0b0 0

#5850
b0b0 %
#5900
b0b1 %

b0b1 #
b0b0 $
b0b100000000000000000000000000000000000000001000010100101110010010000000000000000000000000000000000000000000000000000000000000000000 &
b0b100000000000000000000000000000000000000000101000010101110000100010000000000000000000000000000000000000000000000000000000000010010 (
b0b0 *
b0b1 ,
b0b100000000000000000000000000000000000000001000010100101110010010000000000000000000000000000000000000000000000000000000000000010001 -
b0b00000000000000000000000000000001 /

#5950
b0b0 %
#6000
b0b1 %

b0b100000000000000000000000000000000000000001000010100101110010010000000000000000000000000000000000000000000000000000000000000010001 &
b0b1 +
b0b1 .
b0b00000000000000000000000000000010 /
b0b1 0

#6050
b0b0 %
#6100
b0b1 %

b0b0 #
b0b1 $
b0b100000000000000000000000000000000000000001000010100101110010010000000000000000000000000000000000000000000000000000000000000010001 '
b0b1 *
b0b0 +
b0b0 ,
b0b0 .
b0b00000000000000000000000000000011 /
b0b0 0

#6150
b0b0 %
#6200
b0b1 %

b0b1 #
b0b0 $
b0b100000000000000000000000000000000000000000101000010101110000100010000000000000000000000000000000000000000000000000000000000000000 &
b0b100000000000000000000000000000000000000000110001111111101000011000000000000000000000000000000000000000000000000000000000000010011 (
b0b0 *
b0b1 ,
b0b100000000000000000000000000000000000000000101000010101110000100010000000000000000000000000000000000000000000000000000000000010010 -
b0b00000000000000000000000000000100 /

#6250
b0b0 %
#6300
b0b1 %

b0b100000000000000000000000000000000000000000101000010101110000100010000000000000000000000000000000000000000000000000000000000010010 &
b0b1 +
b0b1 .
b0b00000000000000000000000000000000 /
b0b1 0

#6350
b0b0 %
#6400
b0b1 %

b0b0 #
b0b1 $
b0b100000000000000000000000000000000000000000101000010101110000100010000000000000000000000000000000000000000000000000000000000010010 '
b0b1 *
b0b0 +
b0b0 ,
b0b0 .
b0b00000000000000000000000000000001 /
b0b0 0

#6450
b0b0 %
#6500
b0b1 %

b0b1 #
b0b0 $
b0b100000000000000000000000000000000000000000110001111111101000011000000000000000000000000000000000000000000000000000000000000000000 &
b0b100000000000000000000000000000000000000000010001011010011000110000000000000000000000000000000000000000000000000000000000000010100 (
b0b0 *
b0b1 ,
b0b100000000000000000000000000000000000000000110001111111101000011000000000000000000000000000000000000000000000000000000000000010011 -
b0b00000000000000000000000000000010 /

#6550
b0b0 %
#6600
b0b1 %

b0b100000000000000000000000000000000000000000110001111111101000011000000000000000000000000000000000000000000000000000000000000010011 &
b0b1 +
b0b1 .
b0b00000000000000000000000000000011 /
b0b1 0

#6650
b0b0 %
#6700
b0b1 %

b0b0 #
b0b1 $
b0b100000000000000000000000000000000000000000110001111111101000011000000000000000000000000000000000000000000000000000000000000010011 '
b0b1 *
b0b0 +
b0b0 ,
b0b0 .
b0b00000000000000000000000000000100 /
b0b0 0

#6750
b0b0 %
#6800
b0b1 %

b0b1 #
b0b0 $
b0b100000000000000000000000000000000000000000010001011010011000110000000000000000000000000000000000000000000000000000000000000000000 &
b0b100000000000000000000000000000000000000000111110011010010100110010000000000000000000000000000000000000000000000000000000000010101 (
b0b0 *
b0b1 ,
b0b100000000000000000000000000000000000000000010001011010011000110000000000000000000000000000000000000000000000000000000000000010100 -
b0b00000000000000000000000000000000 /

#6850
b0b0 %
#6900
b0b1 %

b0b100000000000000000000000000000000000000000010001011010011000110000000000000000000000000000000000000000000000000000000000000010100 &
b0b1 +
b0b1 .
b0b00000000000000000000000000000001 /
b0b1 0

#6950
b0b0 %
#7000
b0b1 %

b0b0 #
b0b1 $
b0b100000000000000000000000000000000000000000010001011010011000110000000000000000000000000000000000000000000000000000000000000010100 '
b0b1 *
b0b0 +
b0b0 ,
b0b0 .
b0b00000000000000000000000000000010 /
b0b0 0

#7050
b0b0 %
#7100
b0b1 %

b0b1 #
b0b0 $
b0b100000000000000000000000000000000000000000111110011010010100110010000000000000000000000000000000000000000000000000000000000000000 &
b0b100000000000000000000000000000000000000000110100101101000101110010000000000000000000000000000000000000000000000000000000000010110 (
b0b0 *
b0b1 ,
b0b100000000000000000000000000000000000000000111110011010010100110010000000000000000000000000000000000000000000000000000000000010101 -
b0b00000000000000000000000000000011 /

#7150
b0b0 %
#7200
b0b1 %

b0b100000000000000000000000000000000000000000111110011010010100110010000000000000000000000000000000000000000000000000000000000010101 &
b0b1 +
b0b1 .
b0b00000000000000000000000000000100 /
b0b1 0

#7250
b0b0 %
#7300
b0b1 %

b0b0 #
b0b1 $
b0b100000000000000000000000000000000000000000111110011010010100110010000000000000000000000000000000000000000000000000000000000010101 '
b0b1 *
b0b0 +
b0b0 ,
b0b0 .
b0b00000000000000000000000000000000 /
b0b0 0

#7350
b0b0 %
#7400
b0b1 %

b0b1 #
b0b0 $
b0b100000000000000000000000000000000000000000110100101101000101110010000000000000000000000000000000000000000000000000000000000000000 &
b0b100000000000000000000000000000000000000000101000100111100111010000000000000000000000000000000000000000000000000000000000000010111 (
b0b0 *
b0b1 ,
b0b100000000000000000000000000000000000000000110100101101000101110010000000000000000000000000000000000000000000000000000000000010110 -
b0b00000000000000000000000000000001 /

#7450
b0b0 %
#7500
b0b1 %

b0b100000000000000000000000000000000000000000110100101101000101110010000000000000000000000000000000000000000000000000000000000010110 &
b0b1 +
b0b1 .
b0b00000000000000000000000000000010 /
b0b1 0

#7550
b0b0 %
#7600
b0b1 %

b0b0 #
b0b1 $
b0b100000000000000000000000000000000000000000110100101101000101110010000000000000000000000000000000000000000000000000000000000010110 '
b0b1 *
b0b0 +
b0b0 ,
b0b0 .
b0b00000000000000000000000000000011 /
b0b0 0

#7650
b0b0 %
#7700
b0b1 %

b0b1 #
b0b0 $
b0b100000000000000000000000000000000000000000101000100111100111010000000000000000000000000000000000000000000000000000000000000000000 &
b0b100000000000000000000000000000000000000001001001011001111100010110000000000000000000000000000000000000000000000000000000000011000 (
b0b0 *
b0b1 ,
b0b100000000000000000000000000000000000000000101000100111100111010000000000000000000000000000000000000000000000000000000000000010111 -
b0b00000000000000000000000000000100 /

#7750
b0b0 %
#7800
b0b1 %

b0b100000000000000000000000000000000000000000101000100111100111010000000000000000000000000000000000000000000000000000000000000010111 &
b0b1 +
b0b1 .
b0b00000000000000000000000000000000 /
b0b1 0

#7850
b0b0 %
#7900
b0b1 %

b0b0 #
b0b1 $
b0b100000000000000000000000000000000000000000101000100111100111010000000000000000000000000000000000000000000000000000000000000010111 '
b0b1 *
b0b0 +
b0b0 ,
b0b0 .
b0b00000000000000000000000000000001 /
b0b0 0

#7950
b0b0 %
#8000
b0b1 %

b0b1 #
b0b0 $
b0b100000000000000000000000000000000000000001001001011001111100010110000000000000000000000000000000000000000000000000000000000000000 &
b0b100000000000000000000000000000000000000001001010011001010011101000000000000000000000000000000000000000000000000000000000000011001 (
b0b0 *
b0b1 ,
b0b100000000000000000000000000000000000000001001001011001111100010110000000000000000000000000000000000000000000000000000000000011000 -
b0b00000000000000000000000000000010 /

#8050
b0b0 %
#8100
b0b1 %

b0b100000000000000000000000000000000000000001001001011001111100010110000000000000000000000000000000000000000000000000000000000011000 &
b0b1 +
b0b1 .
b0b00000000000000000000000000000011 /
b0b1 0

#8150
b0b0 %
#8200
b0b1 %

b0b0 #
b0b1 $
b0b100000000000000000000000000000000000000001001001011001111100010110000000000000000000000000000000000000000000000000000000000011000 '
b0b1 *
b0b0 +
b0b0 ,
b0b0 .
b0b00000000000000000000000000000100 /
b0b0 0

#8250
b0b0 %
#8300
b0b1 %

b0b1 #
b0b0 $
b0b100000000000000000000000000000000000000001001010011001010011101000000000000000000000000000000000000000000000000000000000000000000 &
b0b100000000000000000000000000000000000000000111100100101001000110000000000000000000000000000000000000000000000000000000000000011010 (
b0b0 *
b0b1 ,
b0b100000000000000000000000000000000000000001001010011001010011101000000000000000000000000000000000000000000000000000000000000011001 -
b0b00000000000000000000000000000000 /

#8350
b0b0 %
#8400
b0b1 %

b0b100000000000000000000000000000000000000001001010011001010011101000000000000000000000000000000000000000000000000000000000000011001 &
b0b1 +
b0b1 .
b0b00000000000000000000000000000001 /
b0b1 0

#8450
b0b0 %
#8500
b0b1 %

b0b0 #
b0b1 $
b0b100000000000000000000000000000000000000001001010011001010011101000000000000000000000000000000000000000000000000000000000000011001 '
b0b1 *
b0b0 +
b0b0 ,
b0b0 .
b0b00000000000000000000000000000010 /
b0b0 0

#8550
b0b0 %
#8600
b0b1 %

b0b1 #
b0b0 $
b0b100000000000000000000000000000000000000000111100100101001000110000000000000000000000000000000000000000000000000000000000000000000 &
b0b100000000000000000000000000000000000000000010000110100100111100100000000000000000000000000000000000000000000000000000000000011011 (
b0b0 *
b0b1 ,
b0b100000000000000000000000000000000000000000111100100101001000110000000000000000000000000000000000000000000000000000000000000011010 -
b0b00000000000000000000000000000011 /

#8650
b0b0 %
#8700
b0b1 %

b0b100000000000000000000000000000000000000000111100100101001000110000000000000000000000000000000000000000000000000000000000000011010 &
b0b1 +
b0b1 .
b0b00000000000000000000000000000100 /
b0b1 0

#8750
b0b0 %
#8800
b0b1 %

b0b0 #
b0b1 $
b0b100000000000000000000000000000000000000000111100100101001000110000000000000000000000000000000000000000000000000000000000000011010 '
b0b1 *
b0b0 +
b0b0 ,
b0b0 .
b0b00000000000000000000000000000000 /
b0b0 0

#8850
b0b0 %
#8900
b0b1 %

b0b1 #
b0b0 $
b0b100000000000000000000000000000000000000000010000110100100111100100000000000000000000000000000000000000000000000000000000000000000 &
b0b100000000000000000000000000000000000000001000010111101100010001010000000000000000000000000000000000000000000000000000000000011100 (
b0b0 *
b0b1 ,
b0b100000000000000000000000000000000000000000010000110100100111100100000000000000000000000000000000000000000000000000000000000011011 -
b0b00000000000000000000000000000001 /

#8950
b0b0 %
#9000
b0b1 %

b0b100000000000000000000000000000000000000000010000110100100111100100000000000000000000000000000000000000000000000000000000000011011 &
b0b1 +
b0b1 .
b0b00000000000000000000000000000010 /
b0b1 0

#9050
b0b0 %
#9100
b0b1 %

b0b0 #
b0b1 $
b0b100000000000000000000000000000000000000000010000110100100111100100000000000000000000000000000000000000000000000000000000000011011 '
b0b1 *
b0b0 +
b0b0 ,
b0b0 .
b0b00000000000000000000000000000011 /
b0b0 0

#9150
b0b0 %
